design_2_prithviraj/src/simulation.log
# vsim -vopt work.top -voptargs="+acc=npr" -assertdebug -l simulation.log -coverage -c -do "coverage save -onexit -assert -directive -cvg -codeAll coverage.ucdb; run -all; exit" 
# Start time: 16:43:55 on Feb 25,2026
# ** Note: (vsim-3812) Design is being optimized...
# ** Note: (vopt-143) Recognized 2 FSMs in module "axi_lite_if(fast)".
# ** Warning: axi4_sequence.sv(14): (vopt-2240) Treating stand-alone use of function 'randomize' as an implicit VOID cast.
# //  Questa Sim
# //  Version 10.6c linux Jul 25 2017
# //
# //  Copyright 1991-2017 Mentor Graphics Corporation
# //  All Rights Reserved.
# //
# //  QuestaSim and its associated documentation contain trade
# //  secrets and commercial or financial information that are the property of
# //  Mentor Graphics Corporation and are privileged, confidential,
# //  and exempt from disclosure under the Freedom of Information Act,
# //  5 U.S.C. Section 552. Furthermore, this information
# //  is prohibited from disclosure under the Trade Secrets Act,
# //  18 U.S.C. Section 1905.
# //
# Loading sv_std.std
# Loading work.axi4_if(fast)
# Loading mtiUvm.uvm_pkg
# Loading work.axi4_pkg(fast)
# Loading work.top(fast)
# Loading work.axi4_if(fast)
# Loading work.axi_peripheral_top(fast)
# Loading work.axi_lite_if(fast)
# Loading work.reg_bank(fast)
# Loading work.led_driver(fast)
# Loading work.sevenseg_mux(fast)
# Loading work.irq_ctrl(fast)
# Loading mtiUvm.questa_uvm_pkg(fast)
# ** Warning: (vsim-3015) top.sv(29): [PCDPC] - Port size (8) does not match connection size (4) for port 'leds'. The port definition is at: ../design/axi_peripheral_top.v(48).
#    Time: 0 ns  Iteration: 0  Instance: /top/dut File: ../design/axi_peripheral_top.v
# Loading /tools/mentor/questasim_10.6c/questasim/uvm-1.1d/linux/uvm_dpi.so
# coverage save -onexit -assert -directive -cvg -codeAll coverage.ucdb
#  run -all
# ----------------------------------------------------------------
# UVM-1.1d
# (C) 2007-2013 Mentor Graphics Corporation
# (C) 2007-2013 Cadence Design Systems, Inc.
# (C) 2006-2013 Synopsys, Inc.
# (C) 2011-2013 Cypress Semiconductor Corp.
# ----------------------------------------------------------------
# 
#   ***********       IMPORTANT RELEASE NOTES         ************
# 
#   You are using a version of the UVM library that has been compiled
#   with `UVM_NO_DEPRECATED undefined.
#   See http://www.eda.org/svdb/view.php?id=3313 for more details.
# 
#   You are using a version of the UVM library that has been compiled
#   with `UVM_OBJECT_MUST_HAVE_CONSTRUCTOR undefined.
#   See http://www.eda.org/svdb/view.php?id=3770 for more details.
# 
#       (Specify +UVM_NO_RELNOTES to turn off this notice)
# 
# UVM_INFO verilog_src/questa_uvm_pkg-1.2/src/questa_uvm_pkg.sv(215) @ 0: reporter [Questa UVM] QUESTA_UVM-1.2.3
# UVM_INFO verilog_src/questa_uvm_pkg-1.2/src/questa_uvm_pkg.sv(217) @ 0: reporter [Questa UVM]  questa_uvm::init(+struct)
# UVM_INFO @ 0: reporter [RNTST] Running test axi4_base_test...
# UVM_INFO axi4_sequence.sv(10) @ 0: uvm_test_top.env.act_agent.sqr_h@@seq [base_seq]  ------ Base Sequence ------ 
# UVM_INFO axi4_driver.sv(37) @ 15: uvm_test_top.env.act_agent.drv_h [DRV] Driving transaction
# UVM_INFO axi4_driver.sv(37) @ 25: uvm_test_top.env.act_agent.drv_h [DRV] Driving transaction
# UVM_INFO axi4_passive_monitor.sv(69) @ 35: uvm_test_top.env.pas_agent.p_mon_h [MON] [write addr channel] captured : AWADDR=0 | AWVALID=0 | AWREADY=0
# UVM_INFO axi4_passive_monitor.sv(71) @ 35: uvm_test_top.env.pas_agent.p_mon_h [MON] [write data channel] captured : WVALID=0 | WSTRB=0 | WDATA=0 WREADY=0
# UVM_INFO axi4_passive_monitor.sv(73) @ 35: uvm_test_top.env.pas_agent.p_mon_h [MON] [write resp channel] captured : BRESP=0 | BVALID=0 | BREADY=0
# UVM_INFO axi4_passive_monitor.sv(75) @ 35: uvm_test_top.env.pas_agent.p_mon_h [MON] [read addr channel] captured : ARADDR=0 | ARVALID=0 | ARREADY=0
# UVM_INFO axi4_passive_monitor.sv(77) @ 35: uvm_test_top.env.pas_agent.p_mon_h [MON] [read data channel] captured : RVALID=0 | RDATA=0 | RRESP=0 | RREADY = 0 
# UVM_INFO axi4_passive_monitor.sv(79) @ 35: uvm_test_top.env.pas_agent.p_mon_h [MON] [external signals] captured : ext_irq_in=0 | leds=0 | seg_cathode=64 | seg_anode = 14 | irq_out = 0 
# UVM_INFO axi4_driver.sv(37) @ 35: uvm_test_top.env.act_agent.drv_h [DRV] Driving transaction
# UVM_INFO axi4_passive_monitor.sv(69) @ 45: uvm_test_top.env.pas_agent.p_mon_h [MON] [write addr channel] captured : AWADDR=0 | AWVALID=0 | AWREADY=0
# UVM_INFO axi4_passive_monitor.sv(71) @ 45: uvm_test_top.env.pas_agent.p_mon_h [MON] [write data channel] captured : WVALID=0 | WSTRB=0 | WDATA=0 WREADY=0
# UVM_INFO axi4_passive_monitor.sv(73) @ 45: uvm_test_top.env.pas_agent.p_mon_h [MON] [write resp channel] captured : BRESP=0 | BVALID=0 | BREADY=0
# UVM_INFO axi4_passive_monitor.sv(75) @ 45: uvm_test_top.env.pas_agent.p_mon_h [MON] [read addr channel] captured : ARADDR=0 | ARVALID=0 | ARREADY=0
# UVM_INFO axi4_passive_monitor.sv(77) @ 45: uvm_test_top.env.pas_agent.p_mon_h [MON] [read data channel] captured : RVALID=0 | RDATA=0 | RRESP=0 | RREADY = 0 
# UVM_INFO axi4_passive_monitor.sv(79) @ 45: uvm_test_top.env.pas_agent.p_mon_h [MON] [external signals] captured : ext_irq_in=0 | leds=0 | seg_cathode=64 | seg_anode = 14 | irq_out = 0 
# UVM_INFO axi4_driver.sv(37) @ 45: uvm_test_top.env.act_agent.drv_h [DRV] Driving transaction
# UVM_INFO axi4_passive_monitor.sv(69) @ 55: uvm_test_top.env.pas_agent.p_mon_h [MON] [write addr channel] captured : AWADDR=0 | AWVALID=0 | AWREADY=0
# UVM_INFO axi4_passive_monitor.sv(71) @ 55: uvm_test_top.env.pas_agent.p_mon_h [MON] [write data channel] captured : WVALID=0 | WSTRB=0 | WDATA=0 WREADY=0
# UVM_INFO axi4_passive_monitor.sv(73) @ 55: uvm_test_top.env.pas_agent.p_mon_h [MON] [write resp channel] captured : BRESP=0 | BVALID=0 | BREADY=0
# UVM_INFO axi4_passive_monitor.sv(75) @ 55: uvm_test_top.env.pas_agent.p_mon_h [MON] [read addr channel] captured : ARADDR=0 | ARVALID=0 | ARREADY=0
# UVM_INFO axi4_passive_monitor.sv(77) @ 55: uvm_test_top.env.pas_agent.p_mon_h [MON] [read data channel] captured : RVALID=0 | RDATA=0 | RRESP=0 | RREADY = 0 
# UVM_INFO axi4_passive_monitor.sv(79) @ 55: uvm_test_top.env.pas_agent.p_mon_h [MON] [external signals] captured : ext_irq_in=0 | leds=0 | seg_cathode=64 | seg_anode = 14 | irq_out = 0 
# UVM_INFO axi4_driver.sv(37) @ 55: uvm_test_top.env.act_agent.drv_h [DRV] Driving transaction
# UVM_INFO axi4_passive_monitor.sv(69) @ 65: uvm_test_top.env.pas_agent.p_mon_h [MON] [write addr channel] captured : AWADDR=0 | AWVALID=0 | AWREADY=0
# UVM_INFO axi4_passive_monitor.sv(71) @ 65: uvm_test_top.env.pas_agent.p_mon_h [MON] [write data channel] captured : WVALID=0 | WSTRB=0 | WDATA=0 WREADY=0
# UVM_INFO axi4_passive_monitor.sv(73) @ 65: uvm_test_top.env.pas_agent.p_mon_h [MON] [write resp channel] captured : BRESP=0 | BVALID=0 | BREADY=0
# UVM_INFO axi4_passive_monitor.sv(75) @ 65: uvm_test_top.env.pas_agent.p_mon_h [MON] [read addr channel] captured : ARADDR=0 | ARVALID=0 | ARREADY=0
# UVM_INFO axi4_passive_monitor.sv(77) @ 65: uvm_test_top.env.pas_agent.p_mon_h [MON] [read data channel] captured : RVALID=0 | RDATA=0 | RRESP=0 | RREADY = 0 
# UVM_INFO axi4_passive_monitor.sv(79) @ 65: uvm_test_top.env.pas_agent.p_mon_h [MON] [external signals] captured : ext_irq_in=0 | leds=0 | seg_cathode=64 | seg_anode = 14 | irq_out = 0 
# UVM_INFO axi4_driver.sv(37) @ 65: uvm_test_top.env.act_agent.drv_h [DRV] Driving transaction
# UVM_INFO axi4_passive_monitor.sv(69) @ 75: uvm_test_top.env.pas_agent.p_mon_h [MON] [write addr channel] captured : AWADDR=0 | AWVALID=0 | AWREADY=0
# UVM_INFO axi4_passive_monitor.sv(71) @ 75: uvm_test_top.env.pas_agent.p_mon_h [MON] [write data channel] captured : WVALID=0 | WSTRB=0 | WDATA=0 WREADY=0
# UVM_INFO axi4_passive_monitor.sv(73) @ 75: uvm_test_top.env.pas_agent.p_mon_h [MON] [write resp channel] captured : BRESP=0 | BVALID=0 | BREADY=0
# UVM_INFO axi4_passive_monitor.sv(75) @ 75: uvm_test_top.env.pas_agent.p_mon_h [MON] [read addr channel] captured : ARADDR=0 | ARVALID=0 | ARREADY=0
# UVM_INFO axi4_passive_monitor.sv(77) @ 75: uvm_test_top.env.pas_agent.p_mon_h [MON] [read data channel] captured : RVALID=0 | RDATA=0 | RRESP=0 | RREADY = 0 
# UVM_INFO axi4_passive_monitor.sv(79) @ 75: uvm_test_top.env.pas_agent.p_mon_h [MON] [external signals] captured : ext_irq_in=0 | leds=0 | seg_cathode=64 | seg_anode = 14 | irq_out = 0 
# UVM_INFO axi4_driver.sv(37) @ 75: uvm_test_top.env.act_agent.drv_h [DRV] Driving transaction
# UVM_INFO axi4_passive_monitor.sv(69) @ 85: uvm_test_top.env.pas_agent.p_mon_h [MON] [write addr channel] captured : AWADDR=0 | AWVALID=0 | AWREADY=0
# UVM_INFO axi4_passive_monitor.sv(71) @ 85: uvm_test_top.env.pas_agent.p_mon_h [MON] [write data channel] captured : WVALID=0 | WSTRB=0 | WDATA=0 WREADY=0
# UVM_INFO axi4_passive_monitor.sv(73) @ 85: uvm_test_top.env.pas_agent.p_mon_h [MON] [write resp channel] captured : BRESP=0 | BVALID=0 | BREADY=0
# UVM_INFO axi4_passive_monitor.sv(75) @ 85: uvm_test_top.env.pas_agent.p_mon_h [MON] [read addr channel] captured : ARADDR=0 | ARVALID=0 | ARREADY=0
# UVM_INFO axi4_passive_monitor.sv(77) @ 85: uvm_test_top.env.pas_agent.p_mon_h [MON] [read data channel] captured : RVALID=0 | RDATA=0 | RRESP=0 | RREADY = 0 
# UVM_INFO axi4_passive_monitor.sv(79) @ 85: uvm_test_top.env.pas_agent.p_mon_h [MON] [external signals] captured : ext_irq_in=0 | leds=0 | seg_cathode=64 | seg_anode = 14 | irq_out = 0 
# UVM_INFO axi4_driver.sv(37) @ 85: uvm_test_top.env.act_agent.drv_h [DRV] Driving transaction
# UVM_INFO axi4_passive_monitor.sv(69) @ 95: uvm_test_top.env.pas_agent.p_mon_h [MON] [write addr channel] captured : AWADDR=0 | AWVALID=0 | AWREADY=0
# UVM_INFO axi4_passive_monitor.sv(71) @ 95: uvm_test_top.env.pas_agent.p_mon_h [MON] [write data channel] captured : WVALID=0 | WSTRB=0 | WDATA=0 WREADY=0
# UVM_INFO axi4_passive_monitor.sv(73) @ 95: uvm_test_top.env.pas_agent.p_mon_h [MON] [write resp channel] captured : BRESP=0 | BVALID=0 | BREADY=0
# UVM_INFO axi4_passive_monitor.sv(75) @ 95: uvm_test_top.env.pas_agent.p_mon_h [MON] [read addr channel] captured : ARADDR=0 | ARVALID=0 | ARREADY=0
# UVM_INFO axi4_passive_monitor.sv(77) @ 95: uvm_test_top.env.pas_agent.p_mon_h [MON] [read data channel] captured : RVALID=0 | RDATA=0 | RRESP=0 | RREADY = 0 
# UVM_INFO axi4_passive_monitor.sv(79) @ 95: uvm_test_top.env.pas_agent.p_mon_h [MON] [external signals] captured : ext_irq_in=0 | leds=0 | seg_cathode=64 | seg_anode = 14 | irq_out = 0 
# UVM_INFO axi4_driver.sv(37) @ 95: uvm_test_top.env.act_agent.drv_h [DRV] Driving transaction
# UVM_INFO axi4_passive_monitor.sv(69) @ 105: uvm_test_top.env.pas_agent.p_mon_h [MON] [write addr channel] captured : AWADDR=0 | AWVALID=0 | AWREADY=0
# UVM_INFO axi4_passive_monitor.sv(71) @ 105: uvm_test_top.env.pas_agent.p_mon_h [MON] [write data channel] captured : WVALID=0 | WSTRB=0 | WDATA=0 WREADY=0
# UVM_INFO axi4_passive_monitor.sv(73) @ 105: uvm_test_top.env.pas_agent.p_mon_h [MON] [write resp channel] captured : BRESP=0 | BVALID=0 | BREADY=0
# UVM_INFO axi4_passive_monitor.sv(75) @ 105: uvm_test_top.env.pas_agent.p_mon_h [MON] [read addr channel] captured : ARADDR=0 | ARVALID=0 | ARREADY=0
# UVM_INFO axi4_passive_monitor.sv(77) @ 105: uvm_test_top.env.pas_agent.p_mon_h [MON] [read data channel] captured : RVALID=0 | RDATA=0 | RRESP=0 | RREADY = 0 
# UVM_INFO axi4_passive_monitor.sv(79) @ 105: uvm_test_top.env.pas_agent.p_mon_h [MON] [external signals] captured : ext_irq_in=0 | leds=0 | seg_cathode=64 | seg_anode = 14 | irq_out = 0 
# UVM_INFO axi4_driver.sv(37) @ 105: uvm_test_top.env.act_agent.drv_h [DRV] Driving transaction
# UVM_INFO axi4_passive_monitor.sv(69) @ 115: uvm_test_top.env.pas_agent.p_mon_h [MON] [write addr channel] captured : AWADDR=0 | AWVALID=0 | AWREADY=0
# UVM_INFO axi4_passive_monitor.sv(71) @ 115: uvm_test_top.env.pas_agent.p_mon_h [MON] [write data channel] captured : WVALID=0 | WSTRB=0 | WDATA=0 WREADY=0
# UVM_INFO axi4_passive_monitor.sv(73) @ 115: uvm_test_top.env.pas_agent.p_mon_h [MON] [write resp channel] captured : BRESP=0 | BVALID=0 | BREADY=0
# UVM_INFO axi4_passive_monitor.sv(75) @ 115: uvm_test_top.env.pas_agent.p_mon_h [MON] [read addr channel] captured : ARADDR=0 | ARVALID=0 | ARREADY=0
# UVM_INFO axi4_passive_monitor.sv(77) @ 115: uvm_test_top.env.pas_agent.p_mon_h [MON] [read data channel] captured : RVALID=0 | RDATA=0 | RRESP=0 | RREADY = 0 
# UVM_INFO axi4_passive_monitor.sv(79) @ 115: uvm_test_top.env.pas_agent.p_mon_h [MON] [external signals] captured : ext_irq_in=0 | leds=0 | seg_cathode=64 | seg_anode = 14 | irq_out = 0 
# UVM_INFO axi4_driver.sv(37) @ 115: uvm_test_top.env.act_agent.drv_h [DRV] Driving transaction
# UVM_INFO axi4_passive_monitor.sv(69) @ 125: uvm_test_top.env.pas_agent.p_mon_h [MON] [write addr channel] captured : AWADDR=0 | AWVALID=0 | AWREADY=0
# UVM_INFO axi4_passive_monitor.sv(71) @ 125: uvm_test_top.env.pas_agent.p_mon_h [MON] [write data channel] captured : WVALID=0 | WSTRB=0 | WDATA=0 WREADY=0
# UVM_INFO axi4_passive_monitor.sv(73) @ 125: uvm_test_top.env.pas_agent.p_mon_h [MON] [write resp channel] captured : BRESP=0 | BVALID=0 | BREADY=0
# UVM_INFO axi4_passive_monitor.sv(75) @ 125: uvm_test_top.env.pas_agent.p_mon_h [MON] [read addr channel] captured : ARADDR=0 | ARVALID=0 | ARREADY=0
# UVM_INFO axi4_passive_monitor.sv(77) @ 125: uvm_test_top.env.pas_agent.p_mon_h [MON] [read data channel] captured : RVALID=0 | RDATA=0 | RRESP=0 | RREADY = 0 
# UVM_INFO axi4_passive_monitor.sv(79) @ 125: uvm_test_top.env.pas_agent.p_mon_h [MON] [external signals] captured : ext_irq_in=0 | leds=0 | seg_cathode=64 | seg_anode = 14 | irq_out = 0 
# UVM_INFO axi4_driver.sv(37) @ 125: uvm_test_top.env.act_agent.drv_h [DRV] Driving transaction
# UVM_INFO axi4_passive_monitor.sv(69) @ 135: uvm_test_top.env.pas_agent.p_mon_h [MON] [write addr channel] captured : AWADDR=0 | AWVALID=0 | AWREADY=0
# UVM_INFO axi4_passive_monitor.sv(71) @ 135: uvm_test_top.env.pas_agent.p_mon_h [MON] [write data channel] captured : WVALID=0 | WSTRB=0 | WDATA=0 WREADY=0
# UVM_INFO axi4_passive_monitor.sv(73) @ 135: uvm_test_top.env.pas_agent.p_mon_h [MON] [write resp channel] captured : BRESP=0 | BVALID=0 | BREADY=0
# UVM_INFO axi4_passive_monitor.sv(75) @ 135: uvm_test_top.env.pas_agent.p_mon_h [MON] [read addr channel] captured : ARADDR=0 | ARVALID=0 | ARREADY=0
# UVM_INFO axi4_passive_monitor.sv(77) @ 135: uvm_test_top.env.pas_agent.p_mon_h [MON] [read data channel] captured : RVALID=0 | RDATA=0 | RRESP=0 | RREADY = 0 
# UVM_INFO axi4_passive_monitor.sv(79) @ 135: uvm_test_top.env.pas_agent.p_mon_h [MON] [external signals] captured : ext_irq_in=0 | leds=0 | seg_cathode=64 | seg_anode = 14 | irq_out = 0 
# UVM_INFO axi4_driver.sv(37) @ 135: uvm_test_top.env.act_agent.drv_h [DRV] Driving transaction
# UVM_INFO axi4_passive_monitor.sv(69) @ 145: uvm_test_top.env.pas_agent.p_mon_h [MON] [write addr channel] captured : AWADDR=0 | AWVALID=0 | AWREADY=0
# UVM_INFO axi4_passive_monitor.sv(71) @ 145: uvm_test_top.env.pas_agent.p_mon_h [MON] [write data channel] captured : WVALID=0 | WSTRB=0 | WDATA=0 WREADY=0
# UVM_INFO axi4_passive_monitor.sv(73) @ 145: uvm_test_top.env.pas_agent.p_mon_h [MON] [write resp channel] captured : BRESP=0 | BVALID=0 | BREADY=0
# UVM_INFO axi4_passive_monitor.sv(75) @ 145: uvm_test_top.env.pas_agent.p_mon_h [MON] [read addr channel] captured : ARADDR=0 | ARVALID=0 | ARREADY=0
# UVM_INFO axi4_passive_monitor.sv(77) @ 145: uvm_test_top.env.pas_agent.p_mon_h [MON] [read data channel] captured : RVALID=0 | RDATA=0 | RRESP=0 | RREADY = 0 
# UVM_INFO axi4_passive_monitor.sv(79) @ 145: uvm_test_top.env.pas_agent.p_mon_h [MON] [external signals] captured : ext_irq_in=0 | leds=0 | seg_cathode=64 | seg_anode = 14 | irq_out = 0 
# UVM_INFO axi4_driver.sv(37) @ 145: uvm_test_top.env.act_agent.drv_h [DRV] Driving transaction
# UVM_INFO axi4_passive_monitor.sv(69) @ 155: uvm_test_top.env.pas_agent.p_mon_h [MON] [write addr channel] captured : AWADDR=0 | AWVALID=0 | AWREADY=0
# UVM_INFO axi4_passive_monitor.sv(71) @ 155: uvm_test_top.env.pas_agent.p_mon_h [MON] [write data channel] captured : WVALID=0 | WSTRB=0 | WDATA=0 WREADY=0
# UVM_INFO axi4_passive_monitor.sv(73) @ 155: uvm_test_top.env.pas_agent.p_mon_h [MON] [write resp channel] captured : BRESP=0 | BVALID=0 | BREADY=0
# UVM_INFO axi4_passive_monitor.sv(75) @ 155: uvm_test_top.env.pas_agent.p_mon_h [MON] [read addr channel] captured : ARADDR=0 | ARVALID=0 | ARREADY=0
# UVM_INFO axi4_passive_monitor.sv(77) @ 155: uvm_test_top.env.pas_agent.p_mon_h [MON] [read data channel] captured : RVALID=0 | RDATA=0 | RRESP=0 | RREADY = 0 
# UVM_INFO axi4_passive_monitor.sv(79) @ 155: uvm_test_top.env.pas_agent.p_mon_h [MON] [external signals] captured : ext_irq_in=0 | leds=0 | seg_cathode=64 | seg_anode = 14 | irq_out = 0 
# UVM_INFO axi4_driver.sv(37) @ 155: uvm_test_top.env.act_agent.drv_h [DRV] Driving transaction
# UVM_INFO axi4_passive_monitor.sv(69) @ 165: uvm_test_top.env.pas_agent.p_mon_h [MON] [write addr channel] captured : AWADDR=0 | AWVALID=0 | AWREADY=0
# UVM_INFO axi4_passive_monitor.sv(71) @ 165: uvm_test_top.env.pas_agent.p_mon_h [MON] [write data channel] captured : WVALID=0 | WSTRB=0 | WDATA=0 WREADY=0
# UVM_INFO axi4_passive_monitor.sv(73) @ 165: uvm_test_top.env.pas_agent.p_mon_h [MON] [write resp channel] captured : BRESP=0 | BVALID=0 | BREADY=0
# UVM_INFO axi4_passive_monitor.sv(75) @ 165: uvm_test_top.env.pas_agent.p_mon_h [MON] [read addr channel] captured : ARADDR=0 | ARVALID=0 | ARREADY=0
# UVM_INFO axi4_passive_monitor.sv(77) @ 165: uvm_test_top.env.pas_agent.p_mon_h [MON] [read data channel] captured : RVALID=0 | RDATA=0 | RRESP=0 | RREADY = 0 
# UVM_INFO axi4_passive_monitor.sv(79) @ 165: uvm_test_top.env.pas_agent.p_mon_h [MON] [external signals] captured : ext_irq_in=0 | leds=0 | seg_cathode=64 | seg_anode = 14 | irq_out = 0 
# UVM_INFO axi4_driver.sv(37) @ 165: uvm_test_top.env.act_agent.drv_h [DRV] Driving transaction
# UVM_INFO axi4_passive_monitor.sv(69) @ 175: uvm_test_top.env.pas_agent.p_mon_h [MON] [write addr channel] captured : AWADDR=0 | AWVALID=0 | AWREADY=0
# UVM_INFO axi4_passive_monitor.sv(71) @ 175: uvm_test_top.env.pas_agent.p_mon_h [MON] [write data channel] captured : WVALID=0 | WSTRB=0 | WDATA=0 WREADY=0
# UVM_INFO axi4_passive_monitor.sv(73) @ 175: uvm_test_top.env.pas_agent.p_mon_h [MON] [write resp channel] captured : BRESP=0 | BVALID=0 | BREADY=0
# UVM_INFO axi4_passive_monitor.sv(75) @ 175: uvm_test_top.env.pas_agent.p_mon_h [MON] [read addr channel] captured : ARADDR=0 | ARVALID=0 | ARREADY=0
# UVM_INFO axi4_passive_monitor.sv(77) @ 175: uvm_test_top.env.pas_agent.p_mon_h [MON] [read data channel] captured : RVALID=0 | RDATA=0 | RRESP=0 | RREADY = 0 
# UVM_INFO axi4_passive_monitor.sv(79) @ 175: uvm_test_top.env.pas_agent.p_mon_h [MON] [external signals] captured : ext_irq_in=0 | leds=0 | seg_cathode=64 | seg_anode = 14 | irq_out = 0 
# UVM_INFO axi4_driver.sv(37) @ 175: uvm_test_top.env.act_agent.drv_h [DRV] Driving transaction
# UVM_INFO axi4_passive_monitor.sv(69) @ 185: uvm_test_top.env.pas_agent.p_mon_h [MON] [write addr channel] captured : AWADDR=0 | AWVALID=0 | AWREADY=0
# UVM_INFO axi4_passive_monitor.sv(71) @ 185: uvm_test_top.env.pas_agent.p_mon_h [MON] [write data channel] captured : WVALID=0 | WSTRB=0 | WDATA=0 WREADY=0
# UVM_INFO axi4_passive_monitor.sv(73) @ 185: uvm_test_top.env.pas_agent.p_mon_h [MON] [write resp channel] captured : BRESP=0 | BVALID=0 | BREADY=0
# UVM_INFO axi4_passive_monitor.sv(75) @ 185: uvm_test_top.env.pas_agent.p_mon_h [MON] [read addr channel] captured : ARADDR=0 | ARVALID=0 | ARREADY=0
# UVM_INFO axi4_passive_monitor.sv(77) @ 185: uvm_test_top.env.pas_agent.p_mon_h [MON] [read data channel] captured : RVALID=0 | RDATA=0 | RRESP=0 | RREADY = 0 
# UVM_INFO axi4_passive_monitor.sv(79) @ 185: uvm_test_top.env.pas_agent.p_mon_h [MON] [external signals] captured : ext_irq_in=0 | leds=0 | seg_cathode=64 | seg_anode = 14 | irq_out = 0 
# UVM_INFO axi4_driver.sv(37) @ 185: uvm_test_top.env.act_agent.drv_h [DRV] Driving transaction
# UVM_INFO axi4_passive_monitor.sv(69) @ 195: uvm_test_top.env.pas_agent.p_mon_h [MON] [write addr channel] captured : AWADDR=0 | AWVALID=0 | AWREADY=0
# UVM_INFO axi4_passive_monitor.sv(71) @ 195: uvm_test_top.env.pas_agent.p_mon_h [MON] [write data channel] captured : WVALID=0 | WSTRB=0 | WDATA=0 WREADY=0
# UVM_INFO axi4_passive_monitor.sv(73) @ 195: uvm_test_top.env.pas_agent.p_mon_h [MON] [write resp channel] captured : BRESP=0 | BVALID=0 | BREADY=0
# UVM_INFO axi4_passive_monitor.sv(75) @ 195: uvm_test_top.env.pas_agent.p_mon_h [MON] [read addr channel] captured : ARADDR=0 | ARVALID=0 | ARREADY=0
# UVM_INFO axi4_passive_monitor.sv(77) @ 195: uvm_test_top.env.pas_agent.p_mon_h [MON] [read data channel] captured : RVALID=0 | RDATA=0 | RRESP=0 | RREADY = 0 
# UVM_INFO axi4_passive_monitor.sv(79) @ 195: uvm_test_top.env.pas_agent.p_mon_h [MON] [external signals] captured : ext_irq_in=0 | leds=0 | seg_cathode=64 | seg_anode = 14 | irq_out = 0 
# UVM_INFO axi4_driver.sv(37) @ 195: uvm_test_top.env.act_agent.drv_h [DRV] Driving transaction
# UVM_INFO axi4_passive_monitor.sv(69) @ 205: uvm_test_top.env.pas_agent.p_mon_h [MON] [write addr channel] captured : AWADDR=0 | AWVALID=0 | AWREADY=0
# UVM_INFO axi4_passive_monitor.sv(71) @ 205: uvm_test_top.env.pas_agent.p_mon_h [MON] [write data channel] captured : WVALID=0 | WSTRB=0 | WDATA=0 WREADY=0
# UVM_INFO axi4_passive_monitor.sv(73) @ 205: uvm_test_top.env.pas_agent.p_mon_h [MON] [write resp channel] captured : BRESP=0 | BVALID=0 | BREADY=0
# UVM_INFO axi4_passive_monitor.sv(75) @ 205: uvm_test_top.env.pas_agent.p_mon_h [MON] [read addr channel] captured : ARADDR=0 | ARVALID=0 | ARREADY=0
# UVM_INFO axi4_passive_monitor.sv(77) @ 205: uvm_test_top.env.pas_agent.p_mon_h [MON] [read data channel] captured : RVALID=0 | RDATA=0 | RRESP=0 | RREADY = 0 
# UVM_INFO axi4_passive_monitor.sv(79) @ 205: uvm_test_top.env.pas_agent.p_mon_h [MON] [external signals] captured : ext_irq_in=0 | leds=0 | seg_cathode=64 | seg_anode = 14 | irq_out = 0 
# UVM_INFO axi4_driver.sv(37) @ 205: uvm_test_top.env.act_agent.drv_h [DRV] Driving transaction
# UVM_INFO axi4_passive_monitor.sv(69) @ 215: uvm_test_top.env.pas_agent.p_mon_h [MON] [write addr channel] captured : AWADDR=0 | AWVALID=0 | AWREADY=0
# UVM_INFO axi4_passive_monitor.sv(71) @ 215: uvm_test_top.env.pas_agent.p_mon_h [MON] [write data channel] captured : WVALID=0 | WSTRB=0 | WDATA=0 WREADY=0
# UVM_INFO axi4_passive_monitor.sv(73) @ 215: uvm_test_top.env.pas_agent.p_mon_h [MON] [write resp channel] captured : BRESP=0 | BVALID=0 | BREADY=0
# UVM_INFO axi4_passive_monitor.sv(75) @ 215: uvm_test_top.env.pas_agent.p_mon_h [MON] [read addr channel] captured : ARADDR=0 | ARVALID=0 | ARREADY=0
# UVM_INFO axi4_passive_monitor.sv(77) @ 215: uvm_test_top.env.pas_agent.p_mon_h [MON] [read data channel] captured : RVALID=0 | RDATA=0 | RRESP=0 | RREADY = 0 
# UVM_INFO axi4_passive_monitor.sv(79) @ 215: uvm_test_top.env.pas_agent.p_mon_h [MON] [external signals] captured : ext_irq_in=0 | leds=0 | seg_cathode=64 | seg_anode = 14 | irq_out = 0 
# UVM_INFO axi4_driver.sv(37) @ 215: uvm_test_top.env.act_agent.drv_h [DRV] Driving transaction
# UVM_INFO axi4_passive_monitor.sv(69) @ 225: uvm_test_top.env.pas_agent.p_mon_h [MON] [write addr channel] captured : AWADDR=0 | AWVALID=0 | AWREADY=0
# UVM_INFO axi4_passive_monitor.sv(71) @ 225: uvm_test_top.env.pas_agent.p_mon_h [MON] [write data channel] captured : WVALID=0 | WSTRB=0 | WDATA=0 WREADY=0
# UVM_INFO axi4_passive_monitor.sv(73) @ 225: uvm_test_top.env.pas_agent.p_mon_h [MON] [write resp channel] captured : BRESP=0 | BVALID=0 | BREADY=0
# UVM_INFO axi4_passive_monitor.sv(75) @ 225: uvm_test_top.env.pas_agent.p_mon_h [MON] [read addr channel] captured : ARADDR=0 | ARVALID=0 | ARREADY=0
# UVM_INFO axi4_passive_monitor.sv(77) @ 225: uvm_test_top.env.pas_agent.p_mon_h [MON] [read data channel] captured : RVALID=0 | RDATA=0 | RRESP=0 | RREADY = 0 
# UVM_INFO axi4_passive_monitor.sv(79) @ 225: uvm_test_top.env.pas_agent.p_mon_h [MON] [external signals] captured : ext_irq_in=0 | leds=0 | seg_cathode=64 | seg_anode = 14 | irq_out = 0 
# UVM_INFO axi4_driver.sv(37) @ 225: uvm_test_top.env.act_agent.drv_h [DRV] Driving transaction
# UVM_INFO axi4_passive_monitor.sv(69) @ 235: uvm_test_top.env.pas_agent.p_mon_h [MON] [write addr channel] captured : AWADDR=0 | AWVALID=0 | AWREADY=0
# UVM_INFO axi4_passive_monitor.sv(71) @ 235: uvm_test_top.env.pas_agent.p_mon_h [MON] [write data channel] captured : WVALID=0 | WSTRB=0 | WDATA=0 WREADY=0
# UVM_INFO axi4_passive_monitor.sv(73) @ 235: uvm_test_top.env.pas_agent.p_mon_h [MON] [write resp channel] captured : BRESP=0 | BVALID=0 | BREADY=0
# UVM_INFO axi4_passive_monitor.sv(75) @ 235: uvm_test_top.env.pas_agent.p_mon_h [MON] [read addr channel] captured : ARADDR=0 | ARVALID=0 | ARREADY=0
# UVM_INFO axi4_passive_monitor.sv(77) @ 235: uvm_test_top.env.pas_agent.p_mon_h [MON] [read data channel] captured : RVALID=0 | RDATA=0 | RRESP=0 | RREADY = 0 
# UVM_INFO axi4_passive_monitor.sv(79) @ 235: uvm_test_top.env.pas_agent.p_mon_h [MON] [external signals] captured : ext_irq_in=0 | leds=0 | seg_cathode=64 | seg_anode = 14 | irq_out = 0 
# UVM_INFO axi4_driver.sv(37) @ 235: uvm_test_top.env.act_agent.drv_h [DRV] Driving transaction
# UVM_INFO axi4_passive_monitor.sv(69) @ 245: uvm_test_top.env.pas_agent.p_mon_h [MON] [write addr channel] captured : AWADDR=0 | AWVALID=0 | AWREADY=0
