design_1_shreenidhi/src/dump.vcd
$date
	Mon Mar  2 16:07:12 2026
$end
$version
	QuestaSim Version 10.6c
$end
$timescale
	1ns
$end

$scope module uvm_root $end
$upscope $end

$scope module top $end
$var reg 1 ! ACLK $end
$var reg 1 " ARESETn $end

$scope module dut $end
$var parameter 32 # ADDRESS $end
$var parameter 32 $ DATA_WIDTH $end
$var parameter 2 % W_IDLE $end
$var parameter 2 & W_ADDR $end
$var parameter 2 ' W_DATA $end
$var parameter 2 ( W_RESP $end
$var parameter 2 ) R_IDLE $end
$var parameter 2 * R_ADDR $end
$var parameter 2 + R_DATA $end
$var wire 1 , ACLK $end
$var wire 1 - ARESETn $end
$var wire 1 . S_AWADDR [31] $end
$var wire 1 / S_AWADDR [30] $end
$var wire 1 0 S_AWADDR [29] $end
$var wire 1 1 S_AWADDR [28] $end
$var wire 1 2 S_AWADDR [27] $end
$var wire 1 3 S_AWADDR [26] $end
$var wire 1 4 S_AWADDR [25] $end
$var wire 1 5 S_AWADDR [24] $end
$var wire 1 6 S_AWADDR [23] $end
$var wire 1 7 S_AWADDR [22] $end
$var wire 1 8 S_AWADDR [21] $end
$var wire 1 9 S_AWADDR [20] $end
$var wire 1 : S_AWADDR [19] $end
$var wire 1 ; S_AWADDR [18] $end
$var wire 1 < S_AWADDR [17] $end
$var wire 1 = S_AWADDR [16] $end
$var wire 1 > S_AWADDR [15] $end
$var wire 1 ? S_AWADDR [14] $end
$var wire 1 @ S_AWADDR [13] $end
$var wire 1 A S_AWADDR [12] $end
$var wire 1 B S_AWADDR [11] $end
$var wire 1 C S_AWADDR [10] $end
$var wire 1 D S_AWADDR [9] $end
$var wire 1 E S_AWADDR [8] $end
$var wire 1 F S_AWADDR [7] $end
$var wire 1 G S_AWADDR [6] $end
$var wire 1 H S_AWADDR [5] $end
$var wire 1 I S_AWADDR [4] $end
$var wire 1 J S_AWADDR [3] $end
$var wire 1 K S_AWADDR [2] $end
$var wire 1 L S_AWADDR [1] $end
$var wire 1 M S_AWADDR [0] $end
$var wire 1 N S_AWVALID $end
$var reg 1 O S_AWREADY $end
$var wire 1 P S_WDATA [31] $end
$var wire 1 Q S_WDATA [30] $end
$var wire 1 R S_WDATA [29] $end
$var wire 1 S S_WDATA [28] $end
$var wire 1 T S_WDATA [27] $end
$var wire 1 U S_WDATA [26] $end
$var wire 1 V S_WDATA [25] $end
$var wire 1 W S_WDATA [24] $end
$var wire 1 X S_WDATA [23] $end
$var wire 1 Y S_WDATA [22] $end
$var wire 1 Z S_WDATA [21] $end
$var wire 1 [ S_WDATA [20] $end
$var wire 1 \ S_WDATA [19] $end
$var wire 1 ] S_WDATA [18] $end
$var wire 1 ^ S_WDATA [17] $end
$var wire 1 _ S_WDATA [16] $end
$var wire 1 ` S_WDATA [15] $end
$var wire 1 a S_WDATA [14] $end
$var wire 1 b S_WDATA [13] $end
$var wire 1 c S_WDATA [12] $end
$var wire 1 d S_WDATA [11] $end
$var wire 1 e S_WDATA [10] $end
$var wire 1 f S_WDATA [9] $end
$var wire 1 g S_WDATA [8] $end
$var wire 1 h S_WDATA [7] $end
$var wire 1 i S_WDATA [6] $end
$var wire 1 j S_WDATA [5] $end
$var wire 1 k S_WDATA [4] $end
$var wire 1 l S_WDATA [3] $end
$var wire 1 m S_WDATA [2] $end
$var wire 1 n S_WDATA [1] $end
$var wire 1 o S_WDATA [0] $end
$var wire 1 p S_WSTRB [3] $end
$var wire 1 q S_WSTRB [2] $end
$var wire 1 r S_WSTRB [1] $end
$var wire 1 s S_WSTRB [0] $end
$var wire 1 t S_WVALID $end
$var reg 1 u S_WREADY $end
$var wire 1 v S_BREADY $end
$var reg 1 w S_BVALID $end
$var reg 2 x S_BRESP [1:0] $end
$var wire 1 y S_ARADDR [31] $end
$var wire 1 z S_ARADDR [30] $end
$var wire 1 { S_ARADDR [29] $end
$var wire 1 | S_ARADDR [28] $end
$var wire 1 } S_ARADDR [27] $end
$var wire 1 ~ S_ARADDR [26] $end
$var wire 1 !! S_ARADDR [25] $end
$var wire 1 "! S_ARADDR [24] $end
$var wire 1 #! S_ARADDR [23] $end
$var wire 1 $! S_ARADDR [22] $end
$var wire 1 %! S_ARADDR [21] $end
$var wire 1 &! S_ARADDR [20] $end
$var wire 1 '! S_ARADDR [19] $end
$var wire 1 (! S_ARADDR [18] $end
$var wire 1 )! S_ARADDR [17] $end
$var wire 1 *! S_ARADDR [16] $end
$var wire 1 +! S_ARADDR [15] $end
$var wire 1 ,! S_ARADDR [14] $end
$var wire 1 -! S_ARADDR [13] $end
$var wire 1 .! S_ARADDR [12] $end
$var wire 1 /! S_ARADDR [11] $end
$var wire 1 0! S_ARADDR [10] $end
$var wire 1 1! S_ARADDR [9] $end
$var wire 1 2! S_ARADDR [8] $end
$var wire 1 3! S_ARADDR [7] $end
$var wire 1 4! S_ARADDR [6] $end
$var wire 1 5! S_ARADDR [5] $end
$var wire 1 6! S_ARADDR [4] $end
$var wire 1 7! S_ARADDR [3] $end
$var wire 1 8! S_ARADDR [2] $end
$var wire 1 9! S_ARADDR [1] $end
$var wire 1 :! S_ARADDR [0] $end
$var wire 1 ;! S_ARVALID $end
$var reg 1 <! S_ARREADY $end
$var wire 1 =! S_RREADY $end
$var reg 32 >! S_RDATA [31:0] $end
$var reg 1 ?! S_RVALID $end
$var reg 2 @! S_RRESP [1:0] $end
$var reg 8 A! LED_OUT [7:0] $end
$var reg 8 B! SEVENSEG_OUT [7:0] $end
$var reg 1 C! IRQ_OUT $end
$var reg 32 D! led_reg [31:0] $end
$var reg 32 E! sevenseg_reg [31:0] $end
$var reg 32 F! irq_status_reg [31:0] $end
$var reg 8 G! led_prev [7:0] $end
$var reg 32 H! write_addr_reg [31:0] $end
$var reg 32 I! read_addr_reg [31:0] $end
$var reg 2 J! w_state [1:0] $end
$var reg 2 K! w_next [1:0] $end
$var reg 2 L! r_state [1:0] $end
$var reg 2 M! r_next [1:0] $end
$upscope $end
$upscope $end

$scope begin uvm_pkg $end
$var parameter 32 N! UVM_HDL_MAX_WIDTH $end
$var parameter 32 O! UVM_STREAMBITS $end
$var parameter 32 P! UVM_RADIX $end
$var parameter 32 Q! UVM_MACRO_NUMFLAGS $end
$var parameter 32 R! UVM_DEFAULT $end
$var parameter 32 S! UVM_ALL_ON $end
$var parameter 32 T! UVM_FLAGS_ON $end
$var parameter 32 U! UVM_FLAGS_OFF $end
$var parameter 32 V! UVM_COPY $end
$var parameter 32 W! UVM_NOCOPY $end
$var parameter 32 X! UVM_COMPARE $end
$var parameter 32 Y! UVM_NOCOMPARE $end
$var parameter 32 Z! UVM_PRINT $end
$var parameter 32 [! UVM_NOPRINT $end
$var parameter 32 \! UVM_RECORD $end
$var parameter 32 ]! UVM_NORECORD $end
$var parameter 32 ^! UVM_PACK $end
$var parameter 32 _! UVM_NOPACK $end
$var parameter 32 `! UVM_PHYSICAL $end
$var parameter 32 a! UVM_ABSTRACT $end
$var parameter 32 b! UVM_READONLY $end
$var parameter 32 c! UVM_NODEFPRINT $end
$var parameter 32 d! UVM_MACRO_EXTRAS $end
$var parameter 32 e! UVM_FLAGS $end
$var parameter 32 f! UVM_UNPACK $end
$var parameter 32 g! UVM_CHECK_FIELDS $end
$var parameter 32 h! UVM_END_DATA_EXTRA $end
$var parameter 32 i! UVM_START_FUNCS $end
$var parameter 32 j! UVM_SET $end
$var parameter 32 k! UVM_SETINT $end
$var parameter 32 l! UVM_SETOBJ $end
$var parameter 32 m! UVM_SETSTR $end
$var parameter 32 n! UVM_END_FUNCS $end
$var parameter 32 o! UVM_STR_CRC_POLYNOMIAL $end
$var parameter 32 p! UVM_STDOUT $end
$var parameter 32 q! UVM_LINE_WIDTH $end
$var parameter 32 r! UVM_NUM_LINES $end
$var parameter 32 s! UVM_SMALL_STRING $end
$var parameter 32 t! UVM_LARGE_STRING $end
$var reg 1 u! uvm_start_uvm_declarations $end
$var integer 32 v! uvm_global_random_seed $end
$var integer 32 w! UVM_UNBOUNDED_CONNECTIONS $end

$scope function uvm_hdl_check_path $end
$var integer 32 x! uvm_hdl_check_path $end
$upscope $end

$scope function uvm_hdl_deposit $end
$var integer 32 y! uvm_hdl_deposit $end
$var reg 1024 z! value [1023:0] $end
$upscope $end

$scope function uvm_hdl_force $end
$var integer 32 {! uvm_hdl_force $end
$var reg 1024 |! value [1023:0] $end
$upscope $end

$scope task uvm_hdl_force_time $end
$var reg 1024 }! value [1023:0] $end
$var time 64 ~! force_time $end
$upscope $end

$scope function uvm_hdl_release_and_read $end
$var integer 32 !" uvm_hdl_release_and_read $end
$var reg 1024 "" value [1023:0] $end
$upscope $end

$scope function uvm_hdl_release $end
$var integer 32 #" uvm_hdl_release $end
$upscope $end

$scope function uvm_hdl_read $end
$var integer 32 $" uvm_hdl_read $end
$var reg 1024 %" value [1023:0] $end
$upscope $end

$scope function uvm_dpi_get_next_arg_c $end
$upscope $end

$scope function uvm_dpi_get_tool_name_c $end
$upscope $end

$scope function uvm_dpi_get_tool_version_c $end
$upscope $end

$scope function uvm_dpi_get_next_arg $end
$upscope $end

$scope function uvm_dpi_get_tool_name $end
$upscope $end

$scope function uvm_dpi_get_tool_version $end
$upscope $end

$scope function uvm_dpi_regcomp $end
$upscope $end

$scope function uvm_dpi_regexec $end
$var integer 32 &" uvm_dpi_regexec $end
$upscope $end

$scope function uvm_dpi_regfree $end
$upscope $end

$scope function uvm_re_match $end
$var integer 32 '" uvm_re_match $end
$upscope $end

$scope function uvm_dump_re_cache $end
$upscope $end

$scope function uvm_glob_to_re $end
$upscope $end

$scope function uvm_revision_string $end
$upscope $end

$scope function uvm_radix_to_string $end
$var integer 32 (" radix $end
$upscope $end

$scope function uvm_instance_scope $end
$var reg 8 )" c [7:0] $end
$var integer 32 *" pos $end
$upscope $end

$scope function uvm_oneway_hash $end
$var integer 32 +" uvm_oneway_hash $end
$var integer 32 ," seed $end
$var reg 1 -" msb $end
$var reg 8 ." current_byte [7:0] $end
$var reg 32 /" crc1 [31:0] $end
$upscope $end

$scope function uvm_create_random_seed $end
$var integer 32 0" uvm_create_random_seed $end
$upscope $end

$scope function uvm_object_value_str $end
$upscope $end

$scope function uvm_leaf_scope $end
$var reg 8 1" scope_separator [7:0] $end
$var reg 8 2" bracket_match [7:0] $end
$var integer 32 3" pos $end
$var integer 32 4" bmatches $end
$upscope $end

$scope function uvm_vector_to_string $end
$var reg 4096 5" value [4095:0] $end
$var integer 32 6" size $end
$var integer 32 7" radix $end
$upscope $end

$scope function uvm_get_array_index_int $end
$var integer 32 8" uvm_get_array_index_int $end
$var reg 1 9" is_wildcard $end
$var integer 32 :" i $end
$upscope $end

$scope function uvm_get_array_index_string $end
$var reg 1 ;" is_wildcard $end
$var integer 32 <" i $end
$upscope $end

$scope function uvm_is_array $end
$var reg 1 =" uvm_is_array $end
$upscope $end

$scope function uvm_has_wildcard $end
$upscope $end

$scope task run_test $end
$upscope $end

$scope function global_stop_request $end
$upscope $end

$scope function set_global_timeout $end
$var time 64 >" timeout $end
$var reg 1 ?" overridable $end
$upscope $end

$scope function set_global_stop_timeout $end
$var time 64 @" timeout $end
$upscope $end

$scope function uvm_report_enabled $end
$var reg 1 A" uvm_report_enabled $end
$var integer 32 B" verbosity $end
$var reg 2 C" severity [1:0] $end
$upscope $end

$scope function uvm_report $end
$var reg 2 D" severity [1:0] $end
$var integer 32 E" verbosity $end
$var integer 32 F" line $end
$upscope $end

$scope function uvm_report_info $end
$var integer 32 G" verbosity $end
$var integer 32 H" line $end
$upscope $end

$scope function uvm_report_warning $end
$var integer 32 I" verbosity $end
$var integer 32 J" line $end
$upscope $end

$scope function uvm_report_error $end
$var integer 32 K" verbosity $end
$var integer 32 L" line $end
$upscope $end

$scope function uvm_report_fatal $end
$var integer 32 M" verbosity $end
$var integer 32 N" line $end
$upscope $end

$scope function uvm_string_to_severity $end
$var reg 1 O" uvm_string_to_severity $end
$var reg 2 P" sev [1:0] $end
$upscope $end

$scope function uvm_string_to_action $end
$upscope $end

$scope function set_config_int $end
$var reg 4096 Q" value [4095:0] $end
$upscope $end

$scope function set_config_object $end
$var reg 1 R" clone $end
$upscope $end

$scope function set_config_string $end
$upscope $end

$scope function uvm_is_match $end
$var reg 1 S" uvm_is_match $end
$upscope $end

$scope function uvm_string_to_bits $end
$var reg 115200 T" uvm_string_to_bits [115199:0] $end
$upscope $end

$scope function uvm_bits_to_string $end
$var reg 115200 U" str [115199:0] $end
$upscope $end

$scope task uvm_wait_for_nba_region $end
$var integer 32 V" nba $end
$var integer 32 W" next_nba $end
$upscope $end

$scope function uvm_split_string $end
$upscope $end

$scope function uvm_hdl_concat2string $end
$upscope $end
$upscope $end

$scope begin axi4_pkg $end
$upscope $end

$scope begin axi4_top_sv_unit $end
$upscope $end

$scope begin std $end
$upscope $end

$scope begin questa_uvm_pkg $end
$upscope $end
$enddefinitions $end
#0
$dumpvars
0!
0"
0;"
0="
0O
0u
0w
b0 x
0<!
b0 >!
0?!
b0 @!
b0 A!
b0 B!
0C!
b0 D!
b0 E!
b0 F!
b0 G!
b0 H!
b0 I!
b0 J!
b0 K!
b0 L!
b0 M!
0O"
b0 P"
bx T"
bx U"
bx z!
bx |!
bx }!
bx ""
bx %"
1u!
1-"
b1110001 ."
b11000100100100110110111001110011 /"
bx 5"
09"
0?"
0A"
b0 C"
b0 D"
bx Q"
0R"
0S"
b100000 #
b100000 $
b0 %
b1 &
b10 '
b11 (
b0 )
b1 *
b10 +
b10000000000 N!
b1000000000000 O!
b1111000000000000000000000000 P!
b10001 Q!
b10101010101 R!
b101010101 S!
b101010101 T!
b0 U!
b1 V!
b10 W!
b100 X!
b1000 Y!
b10000 Z!
b100000 [!
b1000000 \!
b10000000 ]!
b100000000 ^!
b1000000000 _!
b10000000000000 `!
b100000000000000 a!
b1000000000000000 b!
b10000000000000000 c!
b100000000000000000 d!
b100000000000000001 e!
b100000000000000010 f!
b100000000000000011 g!
b100000000000000100 h!
b100000000000000101 i!
b100000000000000110 j!
b100000000000000110 k!
b100000000000000111 l!
b100000000000001000 m!
b100000000000001000 n!
b100110000010001110110110110 o!
b1 p!
b1111000 q!
b1111000 r!
b1110111111 s!
b11100000111111111 t!
b0 ("
b0 1"
b0 2"
b0 3"
b0 4"
b0 <"
b0 x!
b0 y!
b0 {!
b0 !"
b0 #"
b0 $"
b1 &"
b0 '"
b1101001011000001111100000011110 v!
b101110 )"
b111 *"
b11110101111100100110010001011001 +"
b1101001011000001111100000011110 ,"
b10001000101111101101111010110111 0"
b0 6"
b0 7"
b0 8"
b0 :"
b111110100 B"
b0 E"
b0 F"
b11001000 G"
b11011001 H"
b0 I"
b0 J"
b0 K"
b0 L"
b0 M"
b0 N"
b100011 V"
b100011 W"
b11111111111111111111111111111111 w!
bx ~!
bx >"
bx @"
0-
0,
0M
0L
0K
0J
0I
0H
0G
0F
0E
0D
0C
0B
0A
0@
0?
0>
0=
0<
0;
0:
09
08
07
06
05
04
03
02
01
00
0/
0.
0N
0o
0n
0m
0l
0k
0j
0i
0h
0g
0f
0e
0d
0c
0b
0a
0`
0_
0^
0]
0\
0[
0Z
0Y
0X
0W
0V
0U
0T
0S
0R
0Q
0P
0s
0r
0q
0p
0t
0v
0:!
09!
08!
07!
06!
05!
04!
03!
02!
01!
00!
0/!
0.!
0-!
0,!
0+!
0*!
0)!
0(!
0'!
0&!
0%!
0$!
0#!
0"!
0!!
0~
0}
0|
0{
0z
0y
0;!
0=!
$end
#5
1!
1,
#10
0!
0,
#15
1!
1,
b100100 W"
b100100 V"
1t
18!
1s
1r
1q
1p
1k
1v
1N
b1 K!
#20
1"
0!
1-
0,
#25
1!
1,
b1 J!
#30
0!
0,
#35
1!
1,
1O
b10 K!
#40
0!
0,
#45
1!
1,
b10 J!
0O
1O
#50
0!
0,
#55
1!
1,
0O
1u
b10000 D!
b11 K!
#60
0!
0,
#65
1!
1,
b11 J!
0u
1u
b10000 A!
b10000 G!
#70
0!
0,
#75
1!
1,
0u
1w
b0 K!
b100101 W"
b11110101111100100110010001011100 0"
b11110101111100100110010001011111 0"
b100101 V"
1E
#80
0!
0,
#85
1!
1,
b0 J!
b1 K!
#90
0!
0,
#95
1!
1,
b1 J!
0w
#100
0!
0,
#105
1!
1,
1O
b100000000 H!
b10 K!
#110
0!
0,
#115
1!
1,
b10 J!
0O
1O
#120
0!
0,
#125
1!
1,
0O
1u
b0 D!
b11 K!
#130
0!
0,
#135
1!
1,
b11 J!
0u
1u
b0 A!
b0 G!
#140
0!
0,
#145
1!
1,
0u
1w
b0 K!
b100110 W"
b11110101111100100110010001100011 0"
b11110101111100100110010001101000 0"
b100110 V"
0t
08!
0s
0p
1o
1m
0k
1j
1g
1d
1`
1_
1^
1]
1\
1[
1Z
1Y
1W
1V
1T
1R
1Q
1P
1M
1J
1I
1G
1F
1D
1B
1?
1<
1;
18
15
14
13
12
11
10
1.
0v
1=!
0N
1;!
b1 M!
b11 K!
#150
0!
0,
#155
1!
1,
b1 L!
#160
0!
0,
#165
1!
1,
1<!
b10 M!
#170
0!
0,
#175
1!
1,
b10 L!
0<!
1<!
#180
0!
0,
#185
1!
1,
0<!
1?!
b0 M!
b100111 W"
b100111 V"
#190
0!
0,
#195
1!
1,
b0 L!
b1 M!
#200
0!
0,
#205
1!
1,
b1 L!
0?!
#210
0!
0,
#215
1!
1,
1<!
b10 M!
#220
0!
0,
#225
1!
1,
b10 L!
0<!
1<!
#230
0!
0,
#235
1!
1,
0<!
1?!
b0 M!
#240
0!
0,
#245
1!
1,
b0 L!
b1 M!
#250
0!
0,
#255
1!
1,
b1 L!
0?!
#260
0!
0,
#265
1!
1,
1<!
b10 M!
#270
0!
0,
#275
1!
1,
b10 L!
0<!
1<!
#280
0!
0,
#285
1!
1,
0<!
1?!
b0 M!
#290
0!
0,
#295
1!
1,
b0 L!
b1 M!
#300
0!
0,
#305
1!
1,
b1 L!
0?!
#310
0!
0,
#315
1!
1,
1<!
b10 M!
#320
0!
0,
#325
1!
1,
b10 L!
0<!
1<!
#330
0!
0,
#335
1!
1,
0<!
1?!
b0 M!
#340
0!
0,
#345
1!
1,
b0 L!
b1 M!
#350
0!
0,
#355
1!
1,
b1 L!
0?!
#360
0!
0,
#365
1!
1,
1<!
b10 M!
#370
0!
0,
#375
1!
1,
b10 L!
0<!
1<!
#380
0!
0,
#385
1!
1,
0<!
1?!
b0 M!
#390
0!
0,
#395
1!
1,
b0 L!
b1 M!
#400
0!
0,
#405
1!
1,
b1 L!
0?!
#410
0!
0,
#415
1!
1,
1<!
b10 M!
#420
0!
0,
#425
1!
1,
b10 L!
0<!
1<!
#430
0!
0,
#435
1!
1,
0<!
1?!
b0 M!
#440
0!
0,
#445
1!
1,
b0 L!
b1 M!
#450
0!
0,
#455
1!
1,
b1 L!
0?!
#460
0!
0,
#465
1!
1,
1<!
b10 M!
#470
0!
0,
#475
1!
1,
b10 L!
0<!
1<!
#480
0!
0,
#485
1!
1,
0<!
1?!
b0 M!
#490
0!
0,
#495
1!
1,
b0 L!
b1 M!
#500
0!
0,
#505
1!
1,
b1 L!
0?!
#510
0!
0,
#515
1!
1,
1<!
b10 M!
#520
0!
0,
#525
1!
1,
b10 L!
0<!
1<!
#530
0!
0,
#535
1!
1,
0<!
1?!
b0 M!
#540
0!
0,
#545
1!
1,
b0 L!
b1 M!
#550
0!
0,
#555
1!
1,
b1 L!
0?!
#560
0!
0,
#565
1!
1,
1<!
b10 M!
#570
0!
0,
#575
1!
1,
b10 L!
0<!
1<!
#580
0!
0,
#585
1!
1,
0<!
1?!
b0 M!
#590
0!
0,
#595
1!
1,
b0 L!
b1 M!
#600
0!
0,
#605
1!
1,
b1 L!
0?!
#610
0!
0,
#615
1!
1,
1<!
b10 M!
#620
0!
0,
#625
1!
1,
b10 L!
0<!
1<!
#630
0!
0,
#635
1!
1,
0<!
1?!
b0 M!
#640
0!
0,
#645
1!
1,
b0 L!
b1 M!
#650
0!
0,
#655
1!
1,
b1 L!
0?!
#660
0!
0,
#665
1!
1,
1<!
b10 M!
#670
0!
0,
#675
1!
1,
b10 L!
0<!
1<!
#680
0!
0,
#685
1!
1,
0<!
1?!
b0 M!
#690
0!
0,
#695
1!
1,
b0 L!
b1 M!
#700
0!
0,
#705
1!
1,
b1 L!
0?!
#710
0!
0,
#715
1!
1,
1<!
b10 M!
#720
0!
0,
#725
1!
1,
b10 L!
0<!
1<!
#730
0!
0,
#735
1!
1,
0<!
1?!
b0 M!
#740
0!
0,
#745
1!
1,
b0 L!
b1 M!
#750
0!
0,
#755
1!
1,
b1 L!
0?!
#760
0!
0,
#765
1!
1,
1<!
b10 M!
#770
0!
0,
#775
1!
1,
b10 L!
0<!
1<!
#780
0!
0,
#785
1!
1,
0<!
1?!
b0 M!
#790
0!
0,
#795
1!
1,
b0 L!
b1 M!
#800
0!
0,
#805
1!
1,
b1 L!
0?!
#810
0!
0,
#815
1!
1,
1<!
b10 M!
#820
0!
0,
#825
1!
1,
b10 L!
0<!
1<!
#830
0!
0,
#835
1!
1,
0<!
1?!
b0 M!
#840
0!
0,
#845
1!
1,
b0 L!
b1 M!
#850
0!
0,
#855
1!
1,
b1 L!
0?!
#860
0!
0,
#865
1!
1,
1<!
b10 M!
#870
0!
0,
#875
1!
1,
b10 L!
0<!
1<!
#880
0!
0,
#885
1!
1,
0<!
1?!
b0 M!
#890
0!
0,
#895
1!
1,
b0 L!
b1 M!
#900
0!
0,
#905
1!
1,
b1 L!
0?!
#910
0!
0,
#915
1!
1,
1<!
b10 M!
#920
0!
0,
#925
1!
1,
b10 L!
0<!
1<!
#930
0!
0,
#935
1!
1,
0<!
1?!
b0 M!
#940
0!
0,
#945
1!
1,
b0 L!
b1 M!
#950
0!
0,
#955
1!
1,
b1 L!
0?!
#960
0!
0,
#965
1!
1,
1<!
b10 M!
#970
0!
0,
#975
1!
1,
b10 L!
0<!
1<!
#980
0!
0,
#985
1!
1,
0<!
1?!
b0 M!
#990
0!
0,
#995
1!
1,
b0 L!
b1 M!
#1000
0!
0,
#1005
1!
1,
b1 L!
0?!
#1010
0!
0,
#1015
1!
1,
1<!
b10 M!
#1020
0!
0,
#1025
1!
1,
b10 L!
0<!
1<!
#1030
0!
0,
#1035
1!
1,
0<!
1?!
b0 M!
#1040
0!
0,
#1045
1!
1,
b0 L!
b1 M!
#1050
0!
0,
#1055
1!
1,
b1 L!
0?!
#1060
0!
0,
#1065
1!
1,
1<!
b10 M!
#1070
0!
0,
#1075
1!
1,
b10 L!
0<!
1<!
#1080
0!
0,
#1085
1!
1,
0<!
1?!
b0 M!
#1090
0!
0,
#1095
1!
1,
b0 L!
b1 M!
#1100
0!
0,
#1105
1!
1,
b1 L!
0?!
#1110
0!
0,
#1115
1!
1,
1<!
b10 M!
#1120
0!
0,
#1125
1!
1,
b10 L!
0<!
1<!
#1130
0!
0,
#1135
1!
1,
0<!
1?!
b0 M!
#1140
0!
0,
#1145
1!
1,
b0 L!
b1 M!
#1150
0!
0,
#1155
1!
1,
b1 L!
0?!
#1160
0!
0,
#1165
1!
1,
1<!
b10 M!
#1170
0!
0,
#1175
1!
1,
b10 L!
0<!
1<!
#1180
0!
0,
#1185
1!
1,
b101000 W"
b101001 W"
0<!
1?!
b101000 V"
b101001 V"
b101010 W"
b101011 W"
b0 M!
b101010 V"
b101011 V"
b10001000101111101101111011001001 0"
b10011000110001000010001010001001 0"
b10100111110001100101011111001101 0"
b110010101110001100011011010101 0"
b11101100011100001010000010100100 0"
b100001000110001100111000000 0"
b10111101010100001001111110000111 0"
b1001101011011110111111000111011 0"
b11101100100011001111101011000100 0"
b1100100010101110110010111101001 0"
b1111000011001001110110000101100 0"
b1111010100010100001110000011100 0"
b1000001111010011100110001111111 0"
b100101111010100100110101101101 0"
b10001111001111001011110011000000 0"
b101011101001101110100111101010 0"
b110001110001001110000010011010 0"
b11100100001101111100110011101010 0"
b1000110101111000110010111001010 0"
b11101111001100000101111001010111 0"
b1111110001110100111111000 0"
b10101110000101110011101101001 0"
b11001111001001011101101000110111 0"
b111100000011100100001111101110 0"
b10100100011101001001100000011000 0"
b1101011011110001101111101100 0"
b10010001100001010001010101100011 0"
b1100101101000001100011100110 0"
b111110110110000000010110100100 0"
b1000111000000000111111001100001 0"
b10001010110010011100101101011110 0"
b11110111101111000110111000001010 0"
b1111001110111010111110101110111 0"
b11110111001000100010111110101001 0"
b1001001110100001001110111011100 0"
b11011001111100110001111101101010 0"
b1000000000111111100101011111 0"
b11110101101100010101100101001001 0"
b11010001110011000011011111011100 0"
b10101111010011111001000011110111 0"
b10100010000010011100111101111010 0"
b111000011000110011100110101111 0"
b11011100000111001000010000111110 0"
b10001000101111101101111011011100 0"
b10011000110001000010001010011100 0"
b10100111110001100101011111100000 0"
b110010101110001100011011101000 0"
b11101100011100001010000010110111 0"
b100001000110001100111010011 0"
b10111101010100001001111110011010 0"
b1001101011011110111111001001110 0"
b11101100100011001111101011010111 0"
b1100100010101110110010111111100 0"
b1111000011001001110110000111111 0"
b1111010100010100001110000101111 0"
b1000001111010011100110010010010 0"
b100101111010100100110110000000 0"
b10001111001111001011110011010011 0"
b101011101001101110100111111101 0"
b110001110001001110000010101101 0"
b11100100001101111100110011111101 0"
b1000110101111000110010111011101 0"
b11101111001100000101111001101010 0"
b1111110001110101000001011 0"
b10101110000101110011101111100 0"
b11001111001001011101101001001010 0"
b111100000011100100010000000001 0"
b10100100011101001001100000101011 0"
b1101011011110001101111111111 0"
b10010001100001010001010101110110 0"
b1100101101000001100011111001 0"
b111110110110000000010110110111 0"
b1000111000000000111111001110100 0"
b10001010110010011100101101110001 0"
b11110111101111000110111000011101 0"
b1111001110111010111110110001010 0"
b11110111001000100010111110111100 0"
b1001001110100001001110111101111 0"
b11011001111100110001111101111101 0"
b1000000000111111100101110010 0"
b11110101101100010101100101011100 0"
b11010001110011000011011111101111 0"
b10101111010011111001000100001010 0"
b10100010000010011100111110001101 0"
b111000011000110011100111000010 0"
b11011100000111001000010001010001 0"
b10001000101111101101111011110000 0"
b10011000110001000010001010110000 0"
b10100111110001100101011111110100 0"
b110010101110001100011011111100 0"
b11101100011100001010000011001011 0"
b100001000110001100111100111 0"
b10111101010100001001111110101110 0"
b1001101011011110111111001100010 0"
b11101100100011001111101011101011 0"
b1100100010101110110011000010000 0"
b1111000011001001110110001010011 0"
b1111010100010100001110001000011 0"
b1000001111010011100110010100110 0"
b100101111010100100110110010100 0"
b10001111001111001011110011100111 0"
b101011101001101110101000010001 0"
b110001110001001110000011000001 0"
b11100100001101111100110100010001 0"
b1000110101111000110010111110001 0"
b11101111001100000101111001111110 0"
b1111110001110101000011111 0"
b10101110000101110011110010000 0"
b11001111001001011101101001011110 0"
b111100000011100100010000010101 0"
b10100100011101001001100000111111 0"
b1101011011110001110000010011 0"
b10010001100001010001010110001010 0"
b1100101101000001100100001101 0"
b111110110110000000010111001011 0"
b1000111000000000111111010001000 0"
b10001010110010011100101110000101 0"
b11110111101111000110111000110001 0"
b1111001110111010111110110011110 0"
b11110111001000100010111111010000 0"
b1001001110100001001111000000011 0"
b11011001111100110001111110010001 0"
b1000000000111111100110000110 0"
b11110101101100010101100101110000 0"
b11010001110011000011100000000011 0"
b10101111010011111001000100011110 0"
b10100010000010011100111110100001 0"
b111000011000110011100111010110 0"
b11011100000111001000010001100101 0"
b11011100000111001000010001111010 0"
b111000011000110011100111101011 0"
b10100010000010011100111110110110 0"
b11101111001100000101111010010011 0"
b10100111110001100101100000001001 0"
b10001000101111101101111100000101 0"
b10011000110001000010001011000101 0"
b11101100011100001010000011100000 0"
b110010101110001100011100010001 0"
b1000110101111000110011000000110 0"
b1100100010101110110011000100101 0"
b100001000110001100111111100 0"
b10111101010100001001111111000011 0"
b1001101011011110111111001110111 0"
b11101100100011001111101100000000 0"
b1111000011001001110110001101000 0"
b1111010100010100001110001011000 0"
b11100100001101111100110100100110 0"
b1000001111010011100110010111011 0"
b100101111010100100110110101001 0"
b10001111001111001011110011111100 0"
b101011101001101110101000100110 0"
b110001110001001110000011010110 0"
b1111001110111010111110110110011 0"
b1101011011110001110000101000 0"
b1111110001110101000110100 0"
b10101110000101110011110100101 0"
b11001111001001011101101001110011 0"
b111100000011100100010000101010 0"
b10100100011101001001100001010100 0"
b11110111101111000110111001000110 0"
b10010001100001010001010110011111 0"
b1100101101000001100100100010 0"
b111110110110000000010111100000 0"
b1000111000000000111111010011101 0"
b10001010110010011100101110011010 0"
b10101111010011111001000100110011 0"
b11010001110011000011100000011000 0"
b11110111001000100010111111100101 0"
b1001001110100001001111000011000 0"
b11011001111100110001111110100110 0"
b1000000000111111100110011011 0"
b11110101101100010101100110000101 0"
